A,S,T,L,B,E,X,D
0.0,0.0674840584397316,0.060799259692430496,0.10102023184299469,0.08748859167098999,0.37080925703048706,0.21984946727752686,0.07240843772888184
0.05379149317741394,0.0,0.12884561717510223,0.6215842366218567,1.2525784969329834,0.6694769859313965,0.7188188433647156,0.4235599935054779
0.06508903205394745,0.07916712015867233,0.0,1.626599669456482,0.09917537122964859,1.816361665725708,0.5593768358230591,0.08792047947645187
0.05425214022397995,0.39051729440689087,0.34167563915252686,0.0,0.2679746150970459,1.7758022546768188,1.523669958114624,0.2982800304889679
0.07805611193180084,0.9018930196762085,0.07308760285377502,0.5430198907852173,0.0,0.632851243019104,0.30086395144462585,1.463330864906311
0.07171475142240524,0.532368540763855,0.2077542543411255,3.0805258750915527,0.3237023651599884,0.0,2.3489246368408203,0.3541427254676819
0.07500036060810089,0.4207321107387543,0.21140937507152557,0.7669493556022644,0.47745218873023987,1.0680898427963257,0.0,0.3794650137424469
0.06843695044517517,0.7001703977584839,0.08105312287807465,0.4006710648536682,1.8939170837402344,0.5995726585388184,0.26471808552742004,0.0
